
Log Entry : 11:33:52 AM Tuesday, March 6, 2018
RFIDService Started

Log Entry : 11:33:52 AM Tuesday, March 6, 2018
data source=.;initial catalog=AVT_DB_DEV;user id=sa;password=P@ssw0rd

Log Entry : 11:33:52 AM Tuesday, March 6, 2018
Starting Thread

Log Entry : 11:33:55 AM Tuesday, March 6, 2018
Post ID '1L0' is not registered
