
Log Entry : 10:42:38 AM Thursday, March 15, 2018
RFIDService Started

Log Entry : 10:42:39 AM Thursday, March 15, 2018
data source=.;initial catalog=AVT_DB_DEV;user id=sa;password=P@ssw0rd

Log Entry : 10:42:39 AM Thursday, March 15, 2018
Starting Thread

Log Entry : 10:42:42 AM Thursday, March 15, 2018
Post ID '1L0' is not registered
